<svg xmlns="http://www.w3.org/2000/svg" width="478" height="35" viewBox="0 0 478 35">
  <rect id="Rectangle_51" data-name="Rectangle 51" width="478" height="35" rx="6" fill="#FFC683" fill-opacity="0.15"/>
</svg>
