<svg xmlns="http://www.w3.org/2000/svg" width="20" height="20" viewBox="0 0 20 20">
  <g id="Group_246" data-name="Group 246" transform="translate(-216 -115)">
    <path id="plus-square" d="M15.714,41.286v1.429a.537.537,0,0,1-.536.536H11.25v3.929a.537.537,0,0,1-.536.536H9.286a.537.537,0,0,1-.536-.536V43.25H4.821a.537.537,0,0,1-.536-.536V41.286a.537.537,0,0,1,.536-.536H8.75V36.821a.537.537,0,0,1,.536-.536h1.429a.537.537,0,0,1,.536.536V40.75h3.929A.537.537,0,0,1,15.714,41.286ZM20,34.143V49.857A2.143,2.143,0,0,1,17.857,52H2.143A2.143,2.143,0,0,1,0,49.857V34.143A2.143,2.143,0,0,1,2.143,32H17.857A2.143,2.143,0,0,1,20,34.143ZM17.857,49.589V34.411a.269.269,0,0,0-.268-.268H2.411a.269.269,0,0,0-.268.268V49.589a.269.269,0,0,0,.268.268H17.589A.269.269,0,0,0,17.857,49.589Z" transform="translate(216 83)" fill="#42495a"/>
    <rect id="Rectangle_83" data-name="Rectangle 83" width="14" height="14" transform="translate(219 118)" fill="#fff"/>
    <path id="undo" d="M.23,8H.76a.23.23,0,0,1,.229.235L.944,10.12a4.743,4.743,0,1,1,.774,6.144.23.23,0,0,1-.009-.333l.378-.378a.23.23,0,0,1,.316-.011A3.749,3.749,0,1,0,1.479,11.2L3.9,11.142a.23.23,0,0,1,.235.229v.53a.23.23,0,0,1-.23.23H.23A.23.23,0,0,1,0,11.9V8.229A.23.23,0,0,1,.23,8Z" transform="translate(220.871 112.514)" fill="#42495a" stroke="#42495a" stroke-width="0.7"/>
  </g>
</svg>
