<svg xmlns="http://www.w3.org/2000/svg" viewBox="0 0 50 50">
	<rect rx="50" width="50" height="50" fill="#D6D9DF"/>
	<text font-size="39" font-weight="bold" fill="#555" font-family="Nimbus Sans L,sans-serif" x="16" y="40">8</text>
</svg>
