<svg xmlns="http://www.w3.org/2000/svg" viewBox="0 0 50 50">
	<rect rx="50" width="50" height="50" fill="#1082DF"/>
	<text font-size="39" font-weight="bold" fill="#fff" font-family="Nimbus Sans L,sans-serif" x="3" y="40">18</text>
</svg>
