<svg xmlns="http://www.w3.org/2000/svg" width="500" height="539" viewBox="0 0 500 590">
  <rect id="Rectangle_5" data-name="Rectangle 5" width="500" height="590" rx="15" fill="#fff" stroke="#000"/>
</svg>
